<?xml version="1.0" encoding="UTF-8" standalone="no"?>
<!-- Created with Inkscape (http://www.inkscape.org/) -->

<svg
   xmlns:dc="http://purl.org/dc/elements/1.1/"
   xmlns:cc="http://creativecommons.org/ns#"
   xmlns:rdf="http://www.w3.org/1999/02/22-rdf-syntax-ns#"
   xmlns:svg="http://www.w3.org/2000/svg"
   xmlns="http://www.w3.org/2000/svg"
   xmlns:sodipodi="http://sodipodi.sourceforge.net/DTD/sodipodi-0.dtd"
   xmlns:inkscape="http://www.inkscape.org/namespaces/inkscape"
   width="2048"
   height="1536"
   viewBox="0 0 541.86667 406.40004"
   version="1.1"
   id="svg8"
   inkscape:version="0.92.0 r15299"
   sodipodi:docname="You are being watched(iPad).svg"
   inkscape:export-filename="D:\Uploaded\Fotky\Plocha\YOU ARE BEING WATCHED(iPad).png"
   inkscape:export-xdpi="96"
   inkscape:export-ydpi="96">
  <defs
     id="defs2" />
  <sodipodi:namedview
     id="base"
     pagecolor="#ffffff"
     bordercolor="#666666"
     borderopacity="1.0"
     inkscape:pageopacity="0.0"
     inkscape:pageshadow="2"
     inkscape:zoom="0.35"
     inkscape:cx="1204.7329"
     inkscape:cy="623.36805"
     inkscape:document-units="mm"
     inkscape:current-layer="layer2"
     showgrid="false"
     units="px"
     inkscape:measure-start="918.229,50.5076"
     inkscape:measure-end="0,4.57531e-005"
     inkscape:lockguides="true"
     inkscape:window-width="1920"
     inkscape:window-height="1025"
     inkscape:window-x="-8"
     inkscape:window-y="-8"
     inkscape:window-maximized="1" />
  <metadata
     id="metadata5">
    <rdf:RDF>
      <cc:Work
         rdf:about="">
        <dc:format>image/svg+xml</dc:format>
        <dc:type
           rdf:resource="http://purl.org/dc/dcmitype/StillImage" />
        <dc:title></dc:title>
      </cc:Work>
    </rdf:RDF>
  </metadata>
  <g
     inkscape:groupmode="layer"
     id="layer2"
     inkscape:label="Pozadí"
     style="display:inline"
     transform="translate(0,120.65)"
     sodipodi:insensitive="true">
    <rect
       style="fill:#010000;fill-opacity:1;stroke:none;stroke-width:0.28366816;stroke-opacity:1"
       id="rect6363"
       width="541.86664"
       height="406.39999"
       x="0"
       y="-120.65"
       ry="0" />
  </g>
  <g
     inkscape:label="Text"
     inkscape:groupmode="layer"
     id="layer1"
     transform="translate(0,109.4)"
     sodipodi:insensitive="true">
    <flowRoot
       xml:space="preserve"
       id="flowRoot6310"
       style="font-style:normal;font-variant:normal;font-weight:bold;font-stretch:normal;font-size:18.66676331px;line-height:30.23622131px;font-family:Calibri;-inkscape-font-specification:'Calibri, Bold';font-variant-ligatures:normal;font-variant-caps:normal;font-variant-numeric:normal;font-feature-settings:normal;text-align:start;letter-spacing:0px;word-spacing:0px;writing-mode:lr-tb;text-anchor:start;fill:#fffefe;fill-opacity:1;stroke:none"
       transform="matrix(3.1023487,0,0,3.1023487,-596.97893,-1141.3321)"><flowRegion
         id="flowRegion6312"
         style="font-style:normal;font-variant:normal;font-weight:bold;font-stretch:normal;font-size:18.66676331px;font-family:Calibri;-inkscape-font-specification:'Calibri, Bold';font-variant-ligatures:normal;font-variant-caps:normal;font-variant-numeric:normal;font-feature-settings:normal;text-align:start;writing-mode:lr-tb;text-anchor:start;fill:#fffefe;fill-opacity:1"><rect
           id="rect6314"
           width="307.08636"
           height="224.25386"
           x="216.17264"
           y="385.01505"
           style="font-style:normal;font-variant:normal;font-weight:bold;font-stretch:normal;font-size:18.66676331px;font-family:Calibri;-inkscape-font-specification:'Calibri, Bold';font-variant-ligatures:normal;font-variant-caps:normal;font-variant-numeric:normal;font-feature-settings:normal;text-align:start;writing-mode:lr-tb;text-anchor:start;fill:#fffefe;fill-opacity:1" /></flowRegion><flowPara
         id="flowPara6316">YOU</flowPara></flowRoot>    <flowRoot
       xml:space="preserve"
       id="flowRoot6318"
       style="font-style:normal;font-variant:normal;font-weight:normal;font-stretch:normal;font-size:190.66667175px;line-height:157.98425293px;font-family:sans-serif;-inkscape-font-specification:'sans-serif, Normal';font-variant-ligatures:normal;font-variant-caps:normal;font-variant-numeric:normal;font-feature-settings:normal;text-align:start;letter-spacing:0px;word-spacing:0px;writing-mode:lr-tb;text-anchor:start;fill:#fdfdfd;fill-opacity:1;stroke:none"
       transform="matrix(0.30373363,0,0,0.30373363,-3.7992358,-88.18564)"><flowRegion
         id="flowRegion6320"
         style="font-style:normal;font-variant:normal;font-weight:normal;font-stretch:normal;font-size:190.66667175px;line-height:157.98425293px;font-family:sans-serif;-inkscape-font-specification:'sans-serif, Normal';font-variant-ligatures:normal;font-variant-caps:normal;font-variant-numeric:normal;font-feature-settings:normal;text-align:start;writing-mode:lr-tb;text-anchor:start;fill:#fdfdfd;fill-opacity:1"><rect
           id="rect6322"
           width="1149.5537"
           height="666.70068"
           x="692.96466"
           y="376.93384"
           style="font-style:normal;font-variant:normal;font-weight:normal;font-stretch:normal;font-size:190.66667175px;line-height:157.98425293px;font-family:sans-serif;-inkscape-font-specification:'sans-serif, Normal';font-variant-ligatures:normal;font-variant-caps:normal;font-variant-numeric:normal;font-feature-settings:normal;text-align:start;writing-mode:lr-tb;text-anchor:start;fill:#fdfdfd;fill-opacity:1" /></flowRegion><flowPara
         id="flowPara6328">ARE </flowPara><flowPara
         id="flowPara6330">BEING </flowPara><flowPara
         id="flowPara6332">WATCHED</flowPara><flowPara
         id="flowPara6334" /></flowRoot>  </g>
  <g
     inkscape:groupmode="layer"
     id="layer3"
     inkscape:label="Tracker"
     transform="translate(0,120.65)"
     sodipodi:insensitive="true">
    <g
       id="g6308"
       transform="matrix(0.7266837,0,0,0.72668368,55.416504,-63.03111)">
      <path
         sodipodi:nodetypes="ccccccc"
         inkscape:connector-curvature="0"
         id="path5985-3"
         d="m 0,276.99354 h 5.00161 v 15.00482 h 15.00483 v 5.00162 H 0 Z"
         style="fill:#ff0001;fill-opacity:1;stroke:none;stroke-width:0.66167116px;stroke-linecap:butt;stroke-linejoin:miter;stroke-opacity:1" />
      <path
         sodipodi:nodetypes="ccccc"
         inkscape:connector-curvature="0"
         id="path5989-2-6"
         d="m 169.25879,293.56319 h -26.43925 v 2.03291 h 26.43925 z"
         style="fill:#ff0001;fill-opacity:1;stroke:none;stroke-width:0.02592017px;stroke-linecap:butt;stroke-linejoin:miter;stroke-opacity:1" />
      <path
         sodipodi:nodetypes="ccccc"
         inkscape:connector-curvature="0"
         id="path5989-1-4-9"
         d="M 139.51461,293.56319 H 113.0754 v 2.03291 h 26.43921 z"
         style="fill:#ff0001;fill-opacity:1;stroke:none;stroke-width:0.02592017px;stroke-linecap:butt;stroke-linejoin:miter;stroke-opacity:1" />
      <path
         sodipodi:nodetypes="ccccccccc"
         inkscape:connector-curvature="0"
         id="path5989-0-6-8"
         d="m 109.77045,293.56319 -12.85794,0.009 -10e-7,-13.50554 h -2.032794 v 13.52632 l -11.548426,-0.0298 v 2.03291 h 26.439161 z"
         style="fill:#ff0001;fill-opacity:1;stroke:none;stroke-width:0.02592017px;stroke-linecap:butt;stroke-linejoin:miter;stroke-opacity:1" />
      <path
         sodipodi:nodetypes="ccccc"
         inkscape:connector-curvature="0"
         id="path5989-7-8-7"
         d="m 80.026377,293.56319 h -26.43928 v 2.03291 h 26.43928 z"
         style="fill:#ff0001;fill-opacity:1;stroke:none;stroke-width:0.02592017px;stroke-linecap:butt;stroke-linejoin:miter;stroke-opacity:1" />
      <path
         sodipodi:nodetypes="ccccc"
         inkscape:connector-curvature="0"
         id="path5989-4-1-5"
         d="m 50.282197,293.56319 h -26.43927 v 2.03291 h 26.43927 z"
         style="fill:#ff0001;fill-opacity:1;stroke:none;stroke-width:0.02592017px;stroke-linecap:butt;stroke-linejoin:miter;stroke-opacity:1" />
      <path
         sodipodi:nodetypes="ccccccc"
         inkscape:connector-curvature="0"
         id="path5985-3-6"
         d="m 193.72448,123.90561 h -5.00161 v -15.00482 h -15.00483 v -5.00162 h 20.00644 z"
         style="fill:#ff0001;fill-opacity:1;stroke:none;stroke-width:0.66167116px;stroke-linecap:butt;stroke-linejoin:miter;stroke-opacity:1" />
      <path
         sodipodi:nodetypes="ccccc"
         inkscape:connector-curvature="0"
         id="path5989-2-6-2"
         d="m 24.465687,107.33596 h 26.43925 v -2.03291 h -26.43925 z"
         style="fill:#ff0001;fill-opacity:1;stroke:none;stroke-width:0.02592017px;stroke-linecap:butt;stroke-linejoin:miter;stroke-opacity:1" />
      <path
         sodipodi:nodetypes="ccccc"
         inkscape:connector-curvature="0"
         id="path5989-1-4-9-5"
         d="m 54.209867,107.33596 h 26.43921 v -2.03291 h -26.43921 z"
         style="fill:#ff0001;fill-opacity:1;stroke:none;stroke-width:0.02592017px;stroke-linecap:butt;stroke-linejoin:miter;stroke-opacity:1" />
      <path
         sodipodi:nodetypes="ccccccccc"
         inkscape:connector-curvature="0"
         id="path5989-0-6-8-0"
         d="m 83.954027,107.33596 12.85794,-0.009 v 13.50554 h 2.0328 v -13.52632 l 11.548423,0.0298 v -2.03291 H 83.954027 Z"
         style="fill:#ff0001;fill-opacity:1;stroke:none;stroke-width:0.02592017px;stroke-linecap:butt;stroke-linejoin:miter;stroke-opacity:1" />
      <path
         sodipodi:nodetypes="ccccc"
         inkscape:connector-curvature="0"
         id="path5989-7-8-7-5"
         d="m 113.6981,107.33596 h 26.43928 v -2.03291 H 113.6981 Z"
         style="fill:#ff0001;fill-opacity:1;stroke:none;stroke-width:0.02592017px;stroke-linecap:butt;stroke-linejoin:miter;stroke-opacity:1" />
      <path
         sodipodi:nodetypes="ccccc"
         inkscape:connector-curvature="0"
         id="path5989-4-1-5-2"
         d="m 143.44228,107.33596 h 26.43927 v -2.03291 h -26.43927 z"
         style="fill:#ff0001;fill-opacity:1;stroke:none;stroke-width:0.02592017px;stroke-linecap:butt;stroke-linejoin:miter;stroke-opacity:1" />
      <path
         sodipodi:nodetypes="ccccccc"
         inkscape:connector-curvature="0"
         id="path5985-3-5"
         d="m 20.00644,103.91204 v 5.00161 H 5.00162 v 15.00483 H 0 v -20.00644 z"
         style="fill:#ff0001;fill-opacity:1;stroke:none;stroke-width:0.66167116px;stroke-linecap:butt;stroke-linejoin:miter;stroke-opacity:1" />
      <path
         sodipodi:nodetypes="ccccc"
         inkscape:connector-curvature="0"
         id="path5989-2-6-4"
         d="M 3.43679,273.17083 V 246.73158 H 1.40388 v 26.43925 z"
         style="fill:#ff0001;fill-opacity:1;stroke:none;stroke-width:0.02592017px;stroke-linecap:butt;stroke-linejoin:miter;stroke-opacity:1" />
      <path
         sodipodi:nodetypes="ccccc"
         inkscape:connector-curvature="0"
         id="path5989-1-4-9-4"
         d="M 3.43679,243.42665 V 216.98744 H 1.40388 v 26.43921 z"
         style="fill:#ff0001;fill-opacity:1;stroke:none;stroke-width:0.02592017px;stroke-linecap:butt;stroke-linejoin:miter;stroke-opacity:1" />
      <path
         sodipodi:nodetypes="ccccccccc"
         inkscape:connector-curvature="0"
         id="path5989-0-6-8-2"
         d="m 3.43679,213.68249 -0.009,-12.85794 h 13.50554 v -2.0328 H 3.40701 l 0.0298,-11.54842 H 1.4039 v 26.43916 z"
         style="fill:#ff0001;fill-opacity:1;stroke:none;stroke-width:0.02592017px;stroke-linecap:butt;stroke-linejoin:miter;stroke-opacity:1" />
      <path
         sodipodi:nodetypes="ccccc"
         inkscape:connector-curvature="0"
         id="path5989-7-8-7-3"
         d="M 3.43679,183.93841 V 157.49913 H 1.40388 v 26.43928 z"
         style="fill:#ff0001;fill-opacity:1;stroke:none;stroke-width:0.02592017px;stroke-linecap:butt;stroke-linejoin:miter;stroke-opacity:1" />
      <path
         sodipodi:nodetypes="ccccc"
         inkscape:connector-curvature="0"
         id="path5989-4-1-5-1"
         d="M 3.43679,154.19423 V 127.75496 H 1.40388 v 26.43927 z"
         style="fill:#ff0001;fill-opacity:1;stroke:none;stroke-width:0.02592017px;stroke-linecap:butt;stroke-linejoin:miter;stroke-opacity:1" />
      <path
         sodipodi:nodetypes="ccccccc"
         inkscape:connector-curvature="0"
         id="path5985-3-9"
         d="m 173.09439,297 v -5.00161 h 15.00481 v -15.00483 h 5.00162 V 297 Z"
         style="fill:#ff0001;fill-opacity:1;stroke:none;stroke-width:0.66167116px;stroke-linecap:butt;stroke-linejoin:miter;stroke-opacity:1" />
      <path
         sodipodi:nodetypes="ccccc"
         inkscape:connector-curvature="0"
         id="path5989-2-6-8"
         d="m 189.66403,127.74121 v 26.43925 h 2.03291 v -26.43925 z"
         style="fill:#ff0001;fill-opacity:1;stroke:none;stroke-width:0.02592017px;stroke-linecap:butt;stroke-linejoin:miter;stroke-opacity:1" />
      <path
         sodipodi:nodetypes="ccccc"
         inkscape:connector-curvature="0"
         id="path5989-1-4-9-2"
         d="m 189.66403,157.48539 v 26.43921 h 2.03291 v -26.43921 z"
         style="fill:#ff0001;fill-opacity:1;stroke:none;stroke-width:0.02592017px;stroke-linecap:butt;stroke-linejoin:miter;stroke-opacity:1" />
      <path
         sodipodi:nodetypes="ccccccccc"
         inkscape:connector-curvature="0"
         id="path5989-0-6-8-09"
         d="m 189.66403,187.22955 0.009,12.85794 h -13.50554 v 2.03279 h 13.52632 l -0.0298,11.54843 h 2.03291 v -26.43916 z"
         style="fill:#ff0001;fill-opacity:1;stroke:none;stroke-width:0.02592017px;stroke-linecap:butt;stroke-linejoin:miter;stroke-opacity:1" />
      <path
         sodipodi:nodetypes="ccccc"
         inkscape:connector-curvature="0"
         id="path5989-7-8-7-4"
         d="m 189.66403,216.97362 v 26.43928 h 2.03291 v -26.43928 z"
         style="fill:#ff0001;fill-opacity:1;stroke:none;stroke-width:0.02592017px;stroke-linecap:butt;stroke-linejoin:miter;stroke-opacity:1" />
      <path
         sodipodi:nodetypes="ccccc"
         inkscape:connector-curvature="0"
         id="path5989-4-1-5-0"
         d="m 189.66403,246.7178 v 26.43927 h 2.03291 V 246.7178 Z"
         style="fill:#ff0001;fill-opacity:1;stroke:none;stroke-width:0.02592017px;stroke-linecap:butt;stroke-linejoin:miter;stroke-opacity:1" />
    </g>
  </g>
</svg>
